scan
scan result is 522240000
page faults : 1200 
disk reads : 1100 
disk writes : 100 
scan
scan result is 522240000
page faults : 1200 
disk reads : 1100 
disk writes : 100 
scan
scan result is 522240000
page faults : 1200 
disk reads : 1100 
disk writes : 100 
scan
scan result is 522240000
page faults : 1200 
disk reads : 1100 
disk writes : 100 
scan
scan result is 522240000
page faults : 1200 
disk reads : 1100 
disk writes : 100 
scan
scan result is 522240000
page faults : 1200 
disk reads : 1100 
disk writes : 100 
scan
scan result is 522240000
page faults : 1200 
disk reads : 1100 
disk writes : 100 
scan
scan result is 522240000
page faults : 1200 
disk reads : 1100 
disk writes : 100 
scan
scan result is 522240000
page faults : 1200 
disk reads : 1100 
disk writes : 100 
scan
scan result is 522240000
page faults : 1200 
disk reads : 1100 
disk writes : 100 
scan
scan result is 522240000
page faults : 1200 
disk reads : 1100 
disk writes : 100 
scan
scan result is 522240000
page faults : 1200 
disk reads : 1100 
disk writes : 100 
scan
scan result is 522240000
page faults : 1200 
disk reads : 1100 
disk writes : 100 
scan
scan result is 522240000
page faults : 1200 
disk reads : 1100 
disk writes : 100 
scan
scan result is 522240000
page faults : 1200 
disk reads : 1100 
disk writes : 100 
scan
scan result is 522240000
page faults : 1200 
disk reads : 1100 
disk writes : 100 
scan
scan result is 522240000
page faults : 1200 
disk reads : 1100 
disk writes : 100 
scan
scan result is 522240000
page faults : 1200 
disk reads : 1100 
disk writes : 100 
scan
scan result is 522240000
page faults : 1200 
disk reads : 1100 
disk writes : 100 
scan
scan result is 522240000
page faults : 1200 
disk reads : 1100 
disk writes : 100 
scan
scan result is 522240000
page faults : 1200 
disk reads : 1100 
disk writes : 100 
scan
scan result is 522240000
page faults : 1200 
disk reads : 1100 
disk writes : 100 
scan
scan result is 522240000
page faults : 1200 
disk reads : 1100 
disk writes : 100 
scan
scan result is 522240000
page faults : 1200 
disk reads : 1100 
disk writes : 100 
scan
scan result is 522240000
page faults : 1200 
disk reads : 1100 
disk writes : 100 
scan
scan result is 522240000
page faults : 1200 
disk reads : 1100 
disk writes : 100 
scan
scan result is 522240000
page faults : 1200 
disk reads : 1100 
disk writes : 100 
scan
scan result is 522240000
page faults : 1200 
disk reads : 1100 
disk writes : 100 
scan
scan result is 522240000
page faults : 1200 
disk reads : 1100 
disk writes : 100 
scan
scan result is 522240000
page faults : 1200 
disk reads : 1100 
disk writes : 100 
scan
scan result is 522240000
page faults : 1200 
disk reads : 1100 
disk writes : 100 
scan
scan result is 522240000
page faults : 1200 
disk reads : 1100 
disk writes : 100 
scan
scan result is 522240000
page faults : 1200 
disk reads : 1100 
disk writes : 100 
scan
scan result is 522240000
page faults : 1200 
disk reads : 1100 
disk writes : 100 
scan
scan result is 522240000
page faults : 1200 
disk reads : 1100 
disk writes : 100 
scan
scan result is 522240000
page faults : 1200 
disk reads : 1100 
disk writes : 100 
scan
scan result is 522240000
page faults : 1200 
disk reads : 1100 
disk writes : 100 
scan
scan result is 522240000
page faults : 1200 
disk reads : 1100 
disk writes : 100 
scan
scan result is 522240000
page faults : 1200 
disk reads : 1100 
disk writes : 100 
scan
scan result is 522240000
page faults : 1200 
disk reads : 1100 
disk writes : 100 
scan
scan result is 522240000
page faults : 1200 
disk reads : 1100 
disk writes : 100 
scan
scan result is 522240000
page faults : 1200 
disk reads : 1100 
disk writes : 100 
scan
scan result is 522240000
page faults : 1200 
disk reads : 1100 
disk writes : 100 
scan
scan result is 522240000
page faults : 1200 
disk reads : 1100 
disk writes : 100 
scan
scan result is 522240000
page faults : 1200 
disk reads : 1100 
disk writes : 100 
scan
scan result is 522240000
page faults : 1200 
disk reads : 1100 
disk writes : 100 
scan
scan result is 522240000
page faults : 1200 
disk reads : 1100 
disk writes : 100 
scan
scan result is 522240000
page faults : 1200 
disk reads : 1100 
disk writes : 100 
scan
scan result is 522240000
page faults : 1200 
disk reads : 1100 
disk writes : 100 
scan
scan result is 522240000
page faults : 1200 
disk reads : 1100 
disk writes : 100 
scan
scan result is 522240000
page faults : 1200 
disk reads : 1100 
disk writes : 100 
scan
scan result is 522240000
page faults : 1200 
disk reads : 1100 
disk writes : 100 
scan
scan result is 522240000
page faults : 1200 
disk reads : 1100 
disk writes : 100 
scan
scan result is 522240000
page faults : 1200 
disk reads : 1100 
disk writes : 100 
scan
scan result is 522240000
page faults : 1200 
disk reads : 1100 
disk writes : 100 
scan
scan result is 522240000
page faults : 1200 
disk reads : 1100 
disk writes : 100 
scan
scan result is 522240000
page faults : 1200 
disk reads : 1100 
disk writes : 100 
scan
scan result is 522240000
page faults : 1200 
disk reads : 1100 
disk writes : 100 
scan
scan result is 522240000
page faults : 1200 
disk reads : 1100 
disk writes : 100 
scan
scan result is 522240000
page faults : 1200 
disk reads : 1100 
disk writes : 100 
scan
scan result is 522240000
page faults : 1200 
disk reads : 1100 
disk writes : 100 
scan
scan result is 522240000
page faults : 1200 
disk reads : 1100 
disk writes : 100 
scan
scan result is 522240000
page faults : 1200 
disk reads : 1100 
disk writes : 100 
scan
scan result is 522240000
page faults : 1200 
disk reads : 1100 
disk writes : 100 
scan
scan result is 522240000
page faults : 1200 
disk reads : 1100 
disk writes : 100 
scan
scan result is 522240000
page faults : 1200 
disk reads : 1100 
disk writes : 100 
scan
scan result is 522240000
page faults : 1200 
disk reads : 1100 
disk writes : 100 
scan
scan result is 522240000
page faults : 1200 
disk reads : 1100 
disk writes : 100 
scan
scan result is 522240000
page faults : 1200 
disk reads : 1100 
disk writes : 100 
scan
scan result is 522240000
page faults : 1200 
disk reads : 1100 
disk writes : 100 
scan
scan result is 522240000
page faults : 1200 
disk reads : 1100 
disk writes : 100 
scan
scan result is 522240000
page faults : 1200 
disk reads : 1100 
disk writes : 100 
scan
scan result is 522240000
page faults : 1200 
disk reads : 1100 
disk writes : 100 
scan
scan result is 522240000
page faults : 1200 
disk reads : 1100 
disk writes : 100 
scan
scan result is 522240000
page faults : 1200 
disk reads : 1100 
disk writes : 100 
scan
scan result is 522240000
page faults : 1200 
disk reads : 1100 
disk writes : 100 
scan
scan result is 522240000
page faults : 1200 
disk reads : 1100 
disk writes : 100 
scan
scan result is 522240000
page faults : 1200 
disk reads : 1100 
disk writes : 100 
scan
scan result is 522240000
page faults : 1200 
disk reads : 1100 
disk writes : 100 
scan
scan result is 522240000
page faults : 1200 
disk reads : 1100 
disk writes : 100 
scan
scan result is 522240000
page faults : 1200 
disk reads : 1100 
disk writes : 100 
scan
scan result is 522240000
page faults : 1200 
disk reads : 1100 
disk writes : 100 
scan
scan result is 522240000
page faults : 1200 
disk reads : 1100 
disk writes : 100 
scan
scan result is 522240000
page faults : 1200 
disk reads : 1100 
disk writes : 100 
scan
scan result is 522240000
page faults : 1200 
disk reads : 1100 
disk writes : 100 
scan
scan result is 522240000
page faults : 1200 
disk reads : 1100 
disk writes : 100 
scan
scan result is 522240000
page faults : 1200 
disk reads : 1100 
disk writes : 100 
scan
scan result is 522240000
page faults : 1200 
disk reads : 1100 
disk writes : 100 
scan
scan result is 522240000
page faults : 1200 
disk reads : 1100 
disk writes : 100 
scan
scan result is 522240000
page faults : 1200 
disk reads : 1100 
disk writes : 100 
scan
scan result is 522240000
page faults : 1200 
disk reads : 1100 
disk writes : 100 
scan
scan result is 522240000
page faults : 1200 
disk reads : 1100 
disk writes : 100 
scan
scan result is 522240000
page faults : 1200 
disk reads : 1100 
disk writes : 100 
scan
scan result is 522240000
page faults : 1200 
disk reads : 1100 
disk writes : 100 
scan
scan result is 522240000
page faults : 1200 
disk reads : 1100 
disk writes : 100 
scan
scan result is 522240000
page faults : 1200 
disk reads : 1100 
disk writes : 100 
scan
scan result is 522240000
page faults : 1200 
disk reads : 1100 
disk writes : 100 
scan
scan result is 522240000
page faults : 200 
disk reads : 100 
disk writes : 0 
