scan
scan result is 522240000
page faults : 1200 
disk reads : 1100 
disk writes : 100 
scan
scan result is 522240000
page faults : 1200 
disk reads : 1100 
disk writes : 100 
scan
scan result is 522240000
page faults : 1200 
disk reads : 1100 
disk writes : 100 
scan
scan result is 522240000
page faults : 1200 
disk reads : 1100 
disk writes : 100 
scan
scan result is 522240000
page faults : 1200 
disk reads : 1100 
disk writes : 100 
scan
scan result is 522240000
page faults : 1200 
disk reads : 1100 
disk writes : 100 
scan
scan result is 522240000
page faults : 1200 
disk reads : 1100 
disk writes : 100 
scan
scan result is 522240000
page faults : 1200 
disk reads : 1100 
disk writes : 100 
scan
scan result is 522240000
page faults : 1200 
disk reads : 1100 
disk writes : 100 
scan
scan result is 522240000
page faults : 1200 
disk reads : 1100 
disk writes : 100 
scan
scan result is 522240000
page faults : 1200 
disk reads : 1100 
disk writes : 100 
scan
scan result is 522240000
page faults : 1200 
disk reads : 1100 
disk writes : 100 
scan
scan result is 522240000
page faults : 1199 
disk reads : 1099 
disk writes : 100 
scan
scan result is 522240000
page faults : 1198 
disk reads : 1098 
disk writes : 100 
scan
scan result is 522240000
page faults : 1198 
disk reads : 1098 
disk writes : 100 
scan
scan result is 522240000
page faults : 1197 
disk reads : 1097 
disk writes : 100 
scan
scan result is 522240000
page faults : 1194 
disk reads : 1094 
disk writes : 100 
scan
scan result is 522240000
page faults : 1193 
disk reads : 1093 
disk writes : 100 
scan
scan result is 522240000
page faults : 1188 
disk reads : 1088 
disk writes : 100 
scan
scan result is 522240000
page faults : 1193 
disk reads : 1093 
disk writes : 100 
scan
scan result is 522240000
page faults : 1193 
disk reads : 1093 
disk writes : 100 
scan
scan result is 522240000
page faults : 1179 
disk reads : 1079 
disk writes : 100 
scan
scan result is 522240000
page faults : 1183 
disk reads : 1083 
disk writes : 100 
scan
scan result is 522240000
page faults : 1176 
disk reads : 1076 
disk writes : 100 
scan
scan result is 522240000
page faults : 1172 
disk reads : 1072 
disk writes : 100 
scan
scan result is 522240000
page faults : 1166 
disk reads : 1066 
disk writes : 100 
scan
scan result is 522240000
page faults : 1161 
disk reads : 1061 
disk writes : 100 
scan
scan result is 522240000
page faults : 1166 
disk reads : 1066 
disk writes : 100 
scan
scan result is 522240000
page faults : 1161 
disk reads : 1061 
disk writes : 100 
scan
scan result is 522240000
page faults : 1143 
disk reads : 1043 
disk writes : 100 
scan
scan result is 522240000
page faults : 1145 
disk reads : 1045 
disk writes : 100 
scan
scan result is 522240000
page faults : 1138 
disk reads : 1038 
disk writes : 100 
scan
scan result is 522240000
page faults : 1125 
disk reads : 1025 
disk writes : 100 
scan
scan result is 522240000
page faults : 1119 
disk reads : 1019 
disk writes : 100 
scan
scan result is 522240000
page faults : 1115 
disk reads : 1015 
disk writes : 100 
scan
scan result is 522240000
page faults : 1102 
disk reads : 1002 
disk writes : 100 
scan
scan result is 522240000
page faults : 1102 
disk reads : 1002 
disk writes : 100 
scan
scan result is 522240000
page faults : 1100 
disk reads : 1000 
disk writes : 100 
scan
scan result is 522240000
page faults : 1076 
disk reads : 976 
disk writes : 100 
scan
scan result is 522240000
page faults : 1076 
disk reads : 976 
disk writes : 100 
scan
scan result is 522240000
page faults : 1068 
disk reads : 968 
disk writes : 100 
scan
scan result is 522240000
page faults : 1056 
disk reads : 956 
disk writes : 100 
scan
scan result is 522240000
page faults : 1046 
disk reads : 946 
disk writes : 100 
scan
scan result is 522240000
page faults : 1049 
disk reads : 949 
disk writes : 100 
scan
scan result is 522240000
page faults : 1027 
disk reads : 927 
disk writes : 100 
scan
scan result is 522240000
page faults : 1017 
disk reads : 917 
disk writes : 100 
scan
scan result is 522240000
page faults : 1000 
disk reads : 900 
disk writes : 100 
scan
scan result is 522240000
page faults : 999 
disk reads : 899 
disk writes : 100 
scan
scan result is 522240000
page faults : 984 
disk reads : 884 
disk writes : 100 
scan
scan result is 522240000
page faults : 972 
disk reads : 872 
disk writes : 100 
scan
scan result is 522240000
page faults : 974 
disk reads : 874 
disk writes : 100 
scan
scan result is 522240000
page faults : 930 
disk reads : 830 
disk writes : 100 
scan
scan result is 522240000
page faults : 965 
disk reads : 865 
disk writes : 100 
scan
scan result is 522240000
page faults : 930 
disk reads : 830 
disk writes : 100 
scan
scan result is 522240000
page faults : 904 
disk reads : 804 
disk writes : 100 
scan
scan result is 522240000
page faults : 908 
disk reads : 808 
disk writes : 100 
scan
scan result is 522240000
page faults : 894 
disk reads : 794 
disk writes : 100 
scan
scan result is 522240000
page faults : 863 
disk reads : 763 
disk writes : 100 
scan
scan result is 522240000
page faults : 856 
disk reads : 756 
disk writes : 100 
scan
scan result is 522240000
page faults : 847 
disk reads : 747 
disk writes : 100 
scan
scan result is 522240000
page faults : 838 
disk reads : 738 
disk writes : 100 
scan
scan result is 522240000
page faults : 804 
disk reads : 704 
disk writes : 100 
scan
scan result is 522240000
page faults : 813 
disk reads : 713 
disk writes : 100 
scan
scan result is 522240000
page faults : 787 
disk reads : 687 
disk writes : 100 
scan
scan result is 522240000
page faults : 767 
disk reads : 667 
disk writes : 100 
scan
scan result is 522240000
page faults : 767 
disk reads : 667 
disk writes : 100 
scan
scan result is 522240000
page faults : 758 
disk reads : 658 
disk writes : 100 
scan
scan result is 522240000
page faults : 729 
disk reads : 629 
disk writes : 100 
scan
scan result is 522240000
page faults : 715 
disk reads : 615 
disk writes : 100 
scan
scan result is 522240000
page faults : 685 
disk reads : 585 
disk writes : 100 
scan
scan result is 522240000
page faults : 691 
disk reads : 591 
disk writes : 99 
scan
scan result is 522240000
page faults : 687 
disk reads : 587 
disk writes : 100 
scan
scan result is 522240000
page faults : 668 
disk reads : 568 
disk writes : 100 
scan
scan result is 522240000
page faults : 643 
disk reads : 543 
disk writes : 100 
scan
scan result is 522240000
page faults : 628 
disk reads : 528 
disk writes : 99 
scan
scan result is 522240000
page faults : 617 
disk reads : 517 
disk writes : 100 
scan
scan result is 522240000
page faults : 592 
disk reads : 492 
disk writes : 100 
scan
scan result is 522240000
page faults : 568 
disk reads : 468 
disk writes : 98 
scan
scan result is 522240000
page faults : 550 
disk reads : 450 
disk writes : 98 
scan
scan result is 522240000
page faults : 541 
disk reads : 441 
disk writes : 99 
scan
scan result is 522240000
page faults : 528 
disk reads : 428 
disk writes : 100 
scan
scan result is 522240000
page faults : 476 
disk reads : 376 
disk writes : 97 
scan
scan result is 522240000
page faults : 483 
disk reads : 383 
disk writes : 95 
scan
scan result is 522240000
page faults : 449 
disk reads : 349 
disk writes : 96 
scan
scan result is 522240000
page faults : 437 
disk reads : 337 
disk writes : 91 
scan
scan result is 522240000
page faults : 416 
disk reads : 316 
disk writes : 90 
scan
scan result is 522240000
page faults : 418 
disk reads : 318 
disk writes : 89 
scan
scan result is 522240000
page faults : 393 
disk reads : 293 
disk writes : 91 
scan
scan result is 522240000
page faults : 375 
disk reads : 275 
disk writes : 86 
scan
scan result is 522240000
page faults : 348 
disk reads : 248 
disk writes : 84 
scan
scan result is 522240000
page faults : 334 
disk reads : 234 
disk writes : 80 
scan
scan result is 522240000
page faults : 312 
disk reads : 212 
disk writes : 73 
scan
scan result is 522240000
page faults : 296 
disk reads : 196 
disk writes : 75 
scan
scan result is 522240000
page faults : 281 
disk reads : 181 
disk writes : 58 
scan
scan result is 522240000
page faults : 254 
disk reads : 154 
disk writes : 44 
scan
scan result is 522240000
page faults : 238 
disk reads : 138 
disk writes : 29 
scan
scan result is 522240000
page faults : 223 
disk reads : 123 
disk writes : 22 
scan
scan result is 522240000
page faults : 200 
disk reads : 100 
disk writes : 0 
