focus
focus result is -2266
page faults : 496 
disk reads : 298 
disk writes : 198 
focus
focus result is -1032
page faults : 494 
disk reads : 297 
disk writes : 197 
focus
focus result is -2669
page faults : 486 
disk reads : 293 
disk writes : 193 
focus
focus result is 288
page faults : 498 
disk reads : 299 
disk writes : 199 
focus
focus result is -2316
page faults : 494 
disk reads : 297 
disk writes : 197 
focus
focus result is -6744
page faults : 479 
disk reads : 289 
disk writes : 190 
focus
focus result is -5254
page faults : 488 
disk reads : 293 
disk writes : 195 
focus
focus result is 78
page faults : 479 
disk reads : 289 
disk writes : 190 
focus
focus result is -1337
page faults : 481 
disk reads : 290 
disk writes : 191 
focus
focus result is -2942
page faults : 486 
disk reads : 293 
disk writes : 193 
focus
focus result is -7725
page faults : 482 
disk reads : 291 
disk writes : 191 
focus
focus result is -7663
page faults : 478 
disk reads : 288 
disk writes : 190 
focus
focus result is -2611
page faults : 458 
disk reads : 277 
disk writes : 181 
focus
focus result is -2393
page faults : 459 
disk reads : 278 
disk writes : 181 
focus
focus result is -1909
page faults : 469 
disk reads : 283 
disk writes : 186 
focus
focus result is -5232
page faults : 461 
disk reads : 278 
disk writes : 183 
focus
focus result is -2604
page faults : 463 
disk reads : 280 
disk writes : 183 
focus
focus result is -4625
page faults : 456 
disk reads : 277 
disk writes : 179 
focus
focus result is -4593
page faults : 452 
disk reads : 274 
disk writes : 178 
focus
focus result is -1015
page faults : 443 
disk reads : 268 
disk writes : 174 
focus
focus result is -2611
page faults : 445 
disk reads : 270 
disk writes : 175 
focus
focus result is -3725
page faults : 440 
disk reads : 266 
disk writes : 174 
focus
focus result is -1933
page faults : 454 
disk reads : 274 
disk writes : 180 
focus
focus result is -3494
page faults : 445 
disk reads : 269 
disk writes : 175 
focus
focus result is -2747
page faults : 452 
disk reads : 272 
disk writes : 180 
focus
focus result is -1592
page faults : 433 
disk reads : 262 
disk writes : 168 
focus
focus result is 2156
page faults : 433 
disk reads : 263 
disk writes : 169 
focus
focus result is -2785
page faults : 444 
disk reads : 268 
disk writes : 175 
focus
focus result is -2331
page faults : 430 
disk reads : 260 
disk writes : 167 
focus
focus result is -7326
page faults : 412 
disk reads : 251 
disk writes : 158 
focus
focus result is -7386
page faults : 424 
disk reads : 257 
disk writes : 164 
focus
focus result is -2058
page faults : 421 
disk reads : 254 
disk writes : 166 
focus
focus result is 1247
page faults : 419 
disk reads : 251 
disk writes : 166 
focus
focus result is -6254
page faults : 415 
disk reads : 250 
disk writes : 161 
focus
focus result is -3530
page faults : 414 
disk reads : 248 
disk writes : 161 
focus
focus result is -4763
page faults : 414 
disk reads : 250 
disk writes : 162 
focus
focus result is 1600
page faults : 393 
disk reads : 235 
disk writes : 150 
focus
focus result is -3022
page faults : 410 
disk reads : 246 
disk writes : 158 
focus
focus result is 4094
page faults : 394 
disk reads : 236 
disk writes : 152 
focus
focus result is 1364
page faults : 394 
disk reads : 235 
disk writes : 149 
focus
focus result is 469
page faults : 384 
disk reads : 232 
disk writes : 146 
focus
focus result is 524
page faults : 392 
disk reads : 235 
disk writes : 147 
focus
focus result is -530
page faults : 400 
disk reads : 240 
disk writes : 152 
focus
focus result is -718
page faults : 387 
disk reads : 231 
disk writes : 145 
focus
focus result is 124
page faults : 373 
disk reads : 224 
disk writes : 141 
focus
focus result is 5296
page faults : 396 
disk reads : 234 
disk writes : 152 
focus
focus result is -2407
page faults : 395 
disk reads : 233 
disk writes : 154 
focus
focus result is -1898
page faults : 374 
disk reads : 222 
disk writes : 141 
focus
focus result is -2415
page faults : 370 
disk reads : 218 
disk writes : 132 
focus
focus result is -3178
page faults : 346 
disk reads : 205 
disk writes : 119 
focus
focus result is -2010
page faults : 373 
disk reads : 220 
disk writes : 140 
focus
focus result is 860
page faults : 339 
disk reads : 203 
disk writes : 121 
focus
focus result is -2370
page faults : 362 
disk reads : 214 
disk writes : 132 
focus
focus result is 3975
page faults : 335 
disk reads : 199 
disk writes : 118 
focus
focus result is 47
page faults : 368 
disk reads : 216 
disk writes : 135 
focus
focus result is 216
page faults : 350 
disk reads : 208 
disk writes : 122 
focus
focus result is 3320
page faults : 332 
disk reads : 201 
disk writes : 116 
focus
focus result is 4119
page faults : 343 
disk reads : 201 
disk writes : 117 
focus
focus result is -694
page faults : 328 
disk reads : 192 
disk writes : 112 
focus
focus result is 2944
page faults : 348 
disk reads : 205 
disk writes : 122 
focus
focus result is 1544
page faults : 319 
disk reads : 184 
disk writes : 108 
focus
focus result is 24
page faults : 325 
disk reads : 190 
disk writes : 109 
focus
focus result is 1374
page faults : 345 
disk reads : 200 
disk writes : 113 
focus
focus result is -2556
page faults : 321 
disk reads : 186 
disk writes : 102 
focus
focus result is -3610
page faults : 309 
disk reads : 180 
disk writes : 96 
focus
focus result is -1331
page faults : 323 
disk reads : 194 
disk writes : 105 
focus
focus result is 6243
page faults : 321 
disk reads : 187 
disk writes : 100 
focus
focus result is -377
page faults : 310 
disk reads : 179 
disk writes : 93 
focus
focus result is -3537
page faults : 294 
disk reads : 167 
disk writes : 87 
focus
focus result is 728
page faults : 295 
disk reads : 171 
disk writes : 85 
focus
focus result is -1024
page faults : 301 
disk reads : 171 
disk writes : 89 
focus
focus result is 845
page faults : 295 
disk reads : 169 
disk writes : 85 
focus
focus result is 1271
page faults : 299 
disk reads : 169 
disk writes : 88 
focus
focus result is 3446
page faults : 289 
disk reads : 163 
disk writes : 83 
focus
focus result is 1107
page faults : 267 
disk reads : 151 
disk writes : 64 
focus
focus result is 274
page faults : 296 
disk reads : 167 
disk writes : 81 
focus
focus result is -796
page faults : 269 
disk reads : 149 
disk writes : 67 
focus
focus result is 3158
page faults : 270 
disk reads : 152 
disk writes : 68 
focus
focus result is 4324
page faults : 270 
disk reads : 150 
disk writes : 65 
focus
focus result is 452
page faults : 264 
disk reads : 145 
disk writes : 61 
focus
focus result is 1452
page faults : 255 
disk reads : 141 
disk writes : 54 
focus
focus result is 2672
page faults : 262 
disk reads : 147 
disk writes : 58 
focus
focus result is 820
page faults : 255 
disk reads : 142 
disk writes : 53 
focus
focus result is 2793
page faults : 264 
disk reads : 143 
disk writes : 52 
focus
focus result is -3028
page faults : 248 
disk reads : 135 
disk writes : 48 
focus
focus result is 2048
page faults : 261 
disk reads : 143 
disk writes : 52 
focus
focus result is -2424
page faults : 251 
disk reads : 137 
disk writes : 45 
focus
focus result is 1792
page faults : 240 
disk reads : 130 
disk writes : 40 
focus
focus result is -3714
page faults : 227 
disk reads : 119 
disk writes : 27 
focus
focus result is -3536
page faults : 233 
disk reads : 123 
disk writes : 29 
focus
focus result is 3499
page faults : 222 
disk reads : 117 
disk writes : 23 
focus
focus result is 2787
page faults : 220 
disk reads : 116 
disk writes : 21 
focus
focus result is -2743
page faults : 219 
disk reads : 114 
disk writes : 19 
focus
focus result is -782
page faults : 215 
disk reads : 113 
disk writes : 16 
focus
focus result is -869
page faults : 221 
disk reads : 114 
disk writes : 16 
focus
focus result is -943
page faults : 214 
disk reads : 110 
disk writes : 12 
focus
focus result is 3610
page faults : 202 
disk reads : 102 
disk writes : 3 
focus
focus result is -2533
page faults : 200 
disk reads : 100 
disk writes : 0 
